1689 11689 268
232000 242000 381
454531 464531 444
62222 72222 330
305179 315179 384
137700 147700 375
739234 749234 393
105648 115648 354
127877 137877 344
436980 446980 400
771596 781596 437
48185 58185 340
474849 484849 413
248451 258451 363
773453 783453 437
175701 185701 365
127033 137033 344
347125 357125 379
293710 297263 358
267879 277879 407
359270 369270 410
254834 264834 407
196435 206435 355
492495 502495 426
741807 751807 393
264586 274586 407
425182 435182 387
420835 430835 418
136554 146554 375
200980 210980 373
350142 360142 379
221742 231742 443
540623 550623 452
155387 165387 383
373370 383370 423
282680 292680 389
202444 212444 373
368527 378527 423
162914 172914 352
40890 50890 314
855225 865225 388
840920 850920 419
588460 598460 403
916017 926017 445
143342 153342 370
76832 86832 351
255782 265782 407
468300 478300 382
133815 143815 375
99013 109013 354
359217 369217 410
959220 968843 414
341871 351871 441
251126 261126 363
128744 138744 344
874303 884303 432
143529 153529 370
65299 75299 325
720380 724435 411
192075 202075 360
249937 259937 363
510135 520135 470
141982 151982 375
285613 295613 389
108978 118978 349
93088 103088 341
564165 574165 421
196183 206183 355
44433 54433 340
334916 344916 366
857466 867466 388
252028 262028 363
527838 537838 377
330150 340150 366
88824 98824 333
512994 522994 439
36277 46277 314
811440 821440 450
85149 95149 333
409145 419145 449
334441 344441 366
16617 26617 282
254096 264096 407
22588 32588 308
618417 628417 509
375576 385576 423
4069 14069 276
304293 314293 384
542305 551755 452
32530 42530 324
75244 85244 351
89168 99168 333
208370 218370 386
663836 673836 442
96539 106539 354
437401 447401 400
106465 116465 349
575513 585513 434
217587 227587 368
241154 251154 350
46271 56271 340
294916 304916 371
119888 129888 336
168767 178767 347
238190 248190 368
103494 113494 354
477245 487245 413
619219 629219 509
146963 156963 383
421190 431190 418
42197 52197 314
13356 23356 279
256483 266483 407
89638 99638 333
100873 104873 310
86335 96335 333
313914 323914 371
143110 153110 370
408460 418460 449
612084 622084 447
274587 284587 389
51808 61808 340
174732 184732 365
494473 504473 426
53305 63305 335
374355 384355 423
492720 502720 426
105716 115716 354
164773 174773 352
90313 100313 341
437734 447734 400
387423 397423 436
133837 143837 375
181395 191395 360
348250 358250 379
66648 71147 312
8784 18784 279
16147 26147 282
372567 382567 423
44330 54330 340
616294 626294 385
360244 370244 410
854167 864167 419
574258 584258 434
28712 38712 324
342493 352493 441
72908 82908 351
380971 390971 436
472594 482594 413
195100 205100 360
349332 359332 379
531521 541521 408
579624 589624 434
148452 158452 383
510576 520576 470
460545 470545 444
21114 31114 308
9859 19859 279
434857 444857 400
78372 88372 338
357575 367575 410
79419 89419 333
871474 881474 432
327932 337932 366
206399 216399 386
806589 816589 406
31123 41123 324
268670 278670 407
531463 541463 408
313862 323862 371
628273 638273 416
179870 189870 365
66867 76867 325
37627 47627 314
52089 62089 340
676509 686509 380
142770 152770 370
674449 684449 385
470581 480581 413
114994 124994 349
623350 633350 509
558378 568378 421
247618 257618 363
141174 151174 375
686021 696021 442
179668 189668 365
322201 332201 384
329119 339119 366
206280 216280 373
75806 85806 351
184170 194170 360
465377 475377 413
453176 463176 444
565040 575040 377
504545 514545 470
825297 835297 419
348841 358841 379
198965 208965 373
245890 255890 363
567650 577650 390
89817 99817 333
20708 30708 308
373603 383603 423
367607 377607 423
89997 99997 333
683556 693556 442
784148 794148 437
124629 134629 344
816137 826137 450
467396 477396 413
662063 672063 442
70429 80429 351
262050 272050 407
19679 29679 308
676351 686351 380
225306 235306 443
587614 597614 403
174317 184317 365
269869 279869 407
290572 300572 371
271799 281799 389
625505 635505 509
826074 836074 419
397919 407919 405
549629 559629 421
925664 935664 476
261785 271785 407
281426 291426 389
518605 528605 439
526849 536849 377
133877 143877 375
835270 845270 525
334161 344161 366
142455 152455 375
178300 188300 365
368770 378770 423
262532 272532 407
517783 527783 439
247365 257365 363
185145 195145 360
607940 617940 447
512501 522501 439
291485 301485 371
350093 360093 379
2167 12167 268
673886 683886 385
234810 244810 368
175624 185624 365
706738 709693 349
95369 105369 341
